Big Qs
…
Unbinned filtered contigs

gv8_contigs_unbin <- all_viral_scores %>%
  filter(NCLDV > 0.8) %>% #the bin has a contig with a GV score above 0.8
  filter(length > 10000) %>%  #contig length over 10kb 
  filter(max_score_group == "NCLDV") %>% filter(binID == 'None')
gv8_contigs_unbin

## # A tibble: 91 x 18
##    `giant virus` gtdb_taxa MinimetagenomeID binID contigID   seqname  dsDNAphage
##    <chr>         <chr>                <dbl> <chr> <chr>      <chr>         <dbl>
##  1 <NA>          None            3300020652 None  330002065 3300020      0.44 
##  2 <NA>          None            3300020652 None  330002065 3300020      0.213
##  3 <NA>          None            3300020652 None  330002065 3300020      0.127
##  4 <NA>          None            3300020831 None  330002083 3300020      0.767
##  5 <NA>          None            3300020652 None  330002065 3300020      0.4  
##  6 <NA>          None            3300020652 None  330002065 3300020      0.127
##  7 <NA>          None            3300020652 None  330002065 3300020      0.38 
##  8 <NA>          None            3300020948 None  330002094 3300020      0.54 
##  9 <NA>          None            3300020652 None  330002065 3300020      0.367
## 10 <NA>          None            3300020652 None  330002065 3300020      0.127
## #  with 81 more rows, and 11 more variables: NCLDV <dbl>, RNA <dbl>,
## #   ssDNA <dbl>, lavidaviridae <dbl>, max_score <dbl>, max_score_group <chr>,
## #   length <dbl>, hallmark <dbl>, viral <dbl>, cellular <dbl>, IMG link <chr>
…
Binned filtered contigs

gv8_contigs_binned <- all_viral_scores %>%
  filter(NCLDV > 0.8) %>% #the bin has a contig with a GV score above 0.8
  filter(length > 10000) %>%  #contig length over 10kb 
  filter(max_score_group == "NCLDV") %>% 
  filter(binID !='None') %>%   
  filter(is.na(`giant virus`)) %>% 
  filter(gtdb_taxa == "None")

gv8_contigs_binned$binID <- as.factor(gv8_contigs_binned$binID)
gv8_contigs_binned

## # A tibble: 28 x 18
##    `giant virus` gtdb_taxa MinimetagenomeID binID  contigID  seqname  dsDNAphage
##    <chr>         <chr>                <dbl> <fct>  <chr>     <chr>         <dbl>
##  1 <NA>          None            3300020626 33000 33000206 3300020      0.187
##  2 <NA>          None            3300020626 33000 33000206 3300020      0.347
##  3 <NA>          None            3300020626 33000 33000206 3300020      0.267
##  4 <NA>          None            3300020626 33000 33000206 3300020      0.387
##  5 <NA>          None            3300020626 33000 33000206 3300020      0.633
##  6 <NA>          None            3300020626 33000 33000206 3300020      0.187
##  7 <NA>          None            3300020626 33000 33000206 3300020      0.393
##  8 <NA>          None            3300020626 33000 33000206 3300020      0.587
##  9 <NA>          None            3300020903 33000 33000209 3300020      0.907
## 10 <NA>          None            3300020626 33000 33000206 3300020      0.033
## #  with 18 more rows, and 11 more variables: NCLDV <dbl>, RNA <dbl>,
## #   ssDNA <dbl>, lavidaviridae <dbl>, max_score <dbl>, max_score_group <chr>,
## #   length <dbl>, hallmark <dbl>, viral <dbl>, cellular <dbl>, IMG link <chr>
…
GV unbinned contigs unbinned length of each minimetagenome

gv8_contigs_unbin_count <- all_viral_scores %>%
  filter(NCLDV > 0.8) %>% #the bin has a contig with a GV score above 0.8
  filter(length > 10000) %>%  
  filter(max_score_group == "NCLDV") %>% 
  filter(binID == 'None') %>% 
  group_by(MinimetagenomeID) %>% 
  summarize(total_length = sum(length))
gv8_contigs_unbin_count

## # A tibble: 52 x 2
##    MinimetagenomeID total_length
##               <dbl>        <dbl>
##  1       3300020616        17192
##  2       3300020626        13021
##  3       3300020643        14174
##  4       3300020644        12147
##  5       3300020645        11741
##  6       3300020646        34885
##  7       3300020649        10369
##  8       3300020651        25987
##  9       3300020652       744113
## 10       3300020661        13879
## #  with 42 more rows
…
